Apuntes y actividades 2025-1.
…
ℹ Use `spec()` to retrieve the full column specification for this data.
ℹ Specify the column types or set `show_col_types = FALSE` to quiet this message.

Code

DD

# A tibble: 2,814 × 23
   Período Sección Ciclo Edad  `Estatura (cm)` `Peso (kg)` `Signo del zodiaco`
   <chr>   <chr>   <dbl> <chr>           <dbl> <chr>       <chr>              
 1 2020.2  3           5 21                180 68          geminis            
 2 2020.2  1           6 19                170 63          Géminis            
 3 2020.1  1           3 17                153 50          Escorpio           
 4 2020.1  1           5 18                172 74          Aries              
 5 2020.1  5           3 18                181 81          Aries              
 6 2020.2  3           4 18                153 55          Virgo              
 7 2020.1  3           3 17                160 65          Tauro              
 8 2020.1  1           4 22                177 62          Aries              
 9 2020.1  3           3 17                166 68          Aries              
10 2020.1  3           3 18                165 51          Sagitario          
# ℹ 2,804 more rows
# ℹ 16 more variables: Sexo <chr>, Carrera <chr>, `Tiempo de reacción` <chr>,
#   `Juega videojuegos` <chr>, `Hace deporte` <chr>, `Color favorito` <chr>,
#   `Talla de zapato` <chr>, `Talla de polo` <chr>, `Sistema operativo` <chr>,
#   `Fecha de nacimiento` <chr>, Indicaciones <chr>, ...19 <lgl>, ...20 <lgl>,
#   ...21 <lgl>, ...22 <lgl>, ...23 <lgl>
…
